…
Since there is an enormous amount of data for trending videos, the means
of each variable is explored. The code to find the means is written
below.

    daily_means <- df  %>%
      group_by(trending_date) %>%
      summarise(n_title = n(),
                mean_likes = mean(likes),
                 mean_views = mean(views),
                 mean_dislikes = mean(dislikes),
                mean_comment_count = mean(comment_count))
    daily_means

    ## # A tibble: 205 x 6
    ##    trending_date n_title mean_likes mean_views mean_dislikes
    ##    <fct>           <int>      <dbl>      <dbl>         <dbl>
    ##  1 17.01.12          195     41083.   1134989.         2162.
    ##  2 17.02.12          196     52468.   1239664.         1813.
    ##  3 17.03.12          194     60609.   1531996.         2225.
    ##  4 17.04.12          193     63517.   1793375.         2683.
    ##  5 17.05.12          190     64213.   1829766.         2548.
    ##  6 17.06.12          192     51453.   1488403.         1552.
    ##  7 17.07.12          192     55936.   1760302.         4232.
    ##  8 17.08.12          196     36736.   1206701.         5980.
    ##  9 17.09.12          196     49789.   1598892.         7652.
    ## 10 17.10.12          198     50658.   1542022.         8214.
    ## # ... with 195 more rows, and 1 more variable: mean_comment_count <dbl>
…
